[
    {
        "_id":"a-10",
        "_parentId":"co-01",
        "_type":"article",
        "_classes":"",
        "title":"",
        "displayTitle":"",
        "body":""
    },
    {
        "_id":"a-20",
        "_parentId":"co-02",
        "_type":"article",
        "_classes":"",
        "title":"",
        "displayTitle":"",
        "body":""
    },
    {
        "_id":"a-30",
        "_parentId":"co-03",
        "_type":"article",
        "_classes":"",
        "title":"",
        "displayTitle":"",
        "body":""
    },
    {
        "_id":"a-40",
        "_parentId":"co-04",
        "_type":"article",
        "_classes":"",
        "title":"",
        "displayTitle":"",
        "body":""
    },
    {
        "_id":"a-50",
        "_parentId":"co-05",
        "_type":"article",
        "_classes":"",
        "title":"",
        "displayTitle":"",
        "body":""
    },
    {
        "_id":"a-60",
        "_parentId":"co-06",
        "_type":"article",
        "_classes": "banner_06",
        "title":"",
        "displayTitle":"",
        "body":""
    }
]